{
    "Order ID": "3456",
    "Product ID": "2345",
    "Quantity": 2,
    "Price": 100,
    "Sub Total": 200
}

{
    "Order ID": "8765",
    "Product ID": "9876",
    "Quantity": 1,
    "Price": 500,
    "Sub Total": 500
}