{
	"_id": "5432",
    "User Id": "1234",
    "Transaction Date": "2023-05-16",
    "Status": "Completed",
    "Total": 200
}

{
	"_id": "6789",
    "User Id": "0987",
    "Transaction Date": "2023-05-15",
    "Status": "Pending",
    "Total": 500
}